{
  "name": "gleam",
  "rules": {
    "source_file": {
      "type": "REPEAT",
      "content": {
        "type": "SYMBOL",
        "name": "_statement"
      }
    },
    "_statement": {
      "type": "CHOICE",
      "members": [
        {
          "type": "SYMBOL",
          "name": "import_statement"
        },
        {
          "type": "SYMBOL",
          "name": "constant_statement"
        },
        {
          "type": "SYMBOL",
          "name": "custom_type_statement"
        },
        {
          "type": "SYMBOL",
          "name": "type_alias_statement"
        },
        {
          "type": "SYMBOL",
          "name": "external_type_statement"
        },
        {
          "type": "SYMBOL",
          "name": "external_function_statement"
        },
        {
          "type": "SYMBOL",
          "name": "function_statement"
        }
      ]
    },
    "function_statement": {
      "type": "SEQ",
      "members": [
        {
          "type": "CHOICE",
          "members": [
            {
              "type": "SYMBOL",
              "name": "visibility_modifier"
            },
            {
              "type": "BLANK"
            }
          ]
        },
        {
          "type": "STRING",
          "value": "fn"
        },
        {
          "type": "FIELD",
          "name": "name",
          "content": {
            "type": "SYMBOL",
            "name": "_identifier"
          }
        },
        {
          "type": "FIELD",
          "name": "parameters",
          "content": {
            "type": "SYMBOL",
            "name": "_function_parameters"
          }
        },
        {
          "type": "FIELD",
          "name": "type",
          "content": {
            "type": "CHOICE",
            "members": [
              {
                "type": "SEQ",
                "members": [
                  {
                    "type": "STRING",
                    "value": "->"
                  },
                  {
                    "type": "SYMBOL",
                    "name": "_type_annotation"
                  }
                ]
              },
              {
                "type": "BLANK"
              }
            ]
          }
        },
        {
          "type": "FIELD",
          "name": "block",
          "content": {
            "type": "SEQ",
            "members": [
              {
                "type": "STRING",
                "value": "{"
              },
              {
                "type": "REPEAT",
                "content": {
                  "type": "CHOICE",
                  "members": [
                    {
                      "type": "SYMBOL",
                      "name": "binding"
                    },
                    {
                      "type": "SYMBOL",
                      "name": "_expression"
                    }
                  ]
                }
              },
              {
                "type": "STRING",
                "value": "}"
              }
            ]
          }
        }
      ]
    },
    "binding": {
      "type": "SEQ",
      "members": [
        {
          "type": "SYMBOL",
          "name": "binding_type"
        },
        {
          "type": "SYMBOL",
          "name": "_pattern"
        },
        {
          "type": "STRING",
          "value": "="
        },
        {
          "type": "SYMBOL",
          "name": "_expression"
        }
      ]
    },
    "binding_type": {
      "type": "CHOICE",
      "members": [
        {
          "type": "STRING",
          "value": "let"
        },
        {
          "type": "STRING",
          "value": "assert"
        },
        {
          "type": "STRING",
          "value": "try"
        }
      ]
    },
    "_expression": {
      "type": "CHOICE",
      "members": [
        {
          "type": "SYMBOL",
          "name": "_value"
        },
        {
          "type": "SYMBOL",
          "name": "binary_expression"
        }
      ]
    },
    "binary_expression": {
      "type": "CHOICE",
      "members": [
        {
          "type": "PREC_LEFT",
          "value": 1,
          "content": {
            "type": "SEQ",
            "members": [
              {
                "type": "FIELD",
                "name": "left",
                "content": {
                  "type": "SYMBOL",
                  "name": "_expression"
                }
              },
              {
                "type": "FIELD",
                "name": "operator",
                "content": {
                  "type": "STRING",
                  "value": "||"
                }
              },
              {
                "type": "FIELD",
                "name": "right",
                "content": {
                  "type": "SYMBOL",
                  "name": "_expression"
                }
              }
            ]
          }
        },
        {
          "type": "PREC_LEFT",
          "value": 2,
          "content": {
            "type": "SEQ",
            "members": [
              {
                "type": "FIELD",
                "name": "left",
                "content": {
                  "type": "SYMBOL",
                  "name": "_expression"
                }
              },
              {
                "type": "FIELD",
                "name": "operator",
                "content": {
                  "type": "STRING",
                  "value": "&&"
                }
              },
              {
                "type": "FIELD",
                "name": "right",
                "content": {
                  "type": "SYMBOL",
                  "name": "_expression"
                }
              }
            ]
          }
        },
        {
          "type": "PREC_LEFT",
          "value": 3,
          "content": {
            "type": "SEQ",
            "members": [
              {
                "type": "FIELD",
                "name": "left",
                "content": {
                  "type": "SYMBOL",
                  "name": "_expression"
                }
              },
              {
                "type": "FIELD",
                "name": "operator",
                "content": {
                  "type": "CHOICE",
                  "members": [
                    {
                      "type": "STRING",
                      "value": "=="
                    },
                    {
                      "type": "STRING",
                      "value": "!="
                    }
                  ]
                }
              },
              {
                "type": "FIELD",
                "name": "right",
                "content": {
                  "type": "SYMBOL",
                  "name": "_expression"
                }
              }
            ]
          }
        },
        {
          "type": "PREC_LEFT",
          "value": 4,
          "content": {
            "type": "SEQ",
            "members": [
              {
                "type": "FIELD",
                "name": "left",
                "content": {
                  "type": "SYMBOL",
                  "name": "_expression"
                }
              },
              {
                "type": "FIELD",
                "name": "operator",
                "content": {
                  "type": "CHOICE",
                  "members": [
                    {
                      "type": "STRING",
                      "value": "<"
                    },
                    {
                      "type": "STRING",
                      "value": "<="
                    },
                    {
                      "type": "STRING",
                      "value": ">"
                    },
                    {
                      "type": "STRING",
                      "value": ">="
                    },
                    {
                      "type": "STRING",
                      "value": "<."
                    },
                    {
                      "type": "STRING",
                      "value": "<=."
                    },
                    {
                      "type": "STRING",
                      "value": ">."
                    },
                    {
                      "type": "STRING",
                      "value": ">=."
                    }
                  ]
                }
              },
              {
                "type": "FIELD",
                "name": "right",
                "content": {
                  "type": "SYMBOL",
                  "name": "_expression"
                }
              }
            ]
          }
        },
        {
          "type": "PREC_LEFT",
          "value": 5,
          "content": {
            "type": "SEQ",
            "members": [
              {
                "type": "FIELD",
                "name": "left",
                "content": {
                  "type": "SYMBOL",
                  "name": "_expression"
                }
              },
              {
                "type": "FIELD",
                "name": "operator",
                "content": {
                  "type": "STRING",
                  "value": "|>"
                }
              },
              {
                "type": "FIELD",
                "name": "right",
                "content": {
                  "type": "SYMBOL",
                  "name": "_expression"
                }
              }
            ]
          }
        },
        {
          "type": "PREC_LEFT",
          "value": 6,
          "content": {
            "type": "SEQ",
            "members": [
              {
                "type": "FIELD",
                "name": "left",
                "content": {
                  "type": "SYMBOL",
                  "name": "_expression"
                }
              },
              {
                "type": "FIELD",
                "name": "operator",
                "content": {
                  "type": "CHOICE",
                  "members": [
                    {
                      "type": "STRING",
                      "value": "+"
                    },
                    {
                      "type": "STRING",
                      "value": "-"
                    },
                    {
                      "type": "STRING",
                      "value": "+."
                    },
                    {
                      "type": "STRING",
                      "value": "-."
                    }
                  ]
                }
              },
              {
                "type": "FIELD",
                "name": "right",
                "content": {
                  "type": "SYMBOL",
                  "name": "_expression"
                }
              }
            ]
          }
        },
        {
          "type": "PREC_LEFT",
          "value": 7,
          "content": {
            "type": "SEQ",
            "members": [
              {
                "type": "FIELD",
                "name": "left",
                "content": {
                  "type": "SYMBOL",
                  "name": "_expression"
                }
              },
              {
                "type": "FIELD",
                "name": "operator",
                "content": {
                  "type": "CHOICE",
                  "members": [
                    {
                      "type": "STRING",
                      "value": "*"
                    },
                    {
                      "type": "STRING",
                      "value": "/"
                    },
                    {
                      "type": "STRING",
                      "value": "*."
                    },
                    {
                      "type": "STRING",
                      "value": "/."
                    },
                    {
                      "type": "STRING",
                      "value": "%"
                    }
                  ]
                }
              },
              {
                "type": "FIELD",
                "name": "right",
                "content": {
                  "type": "SYMBOL",
                  "name": "_expression"
                }
              }
            ]
          }
        }
      ]
    },
    "external_function_statement": {
      "type": "SEQ",
      "members": [
        {
          "type": "CHOICE",
          "members": [
            {
              "type": "SYMBOL",
              "name": "visibility_modifier"
            },
            {
              "type": "BLANK"
            }
          ]
        },
        {
          "type": "STRING",
          "value": "external"
        },
        {
          "type": "STRING",
          "value": "fn"
        },
        {
          "type": "FIELD",
          "name": "name",
          "content": {
            "type": "SYMBOL",
            "name": "_identifier"
          }
        },
        {
          "type": "FIELD",
          "name": "parameters",
          "content": {
            "type": "SYMBOL",
            "name": "_function_parameters"
          }
        },
        {
          "type": "FIELD",
          "name": "type",
          "content": {
            "type": "CHOICE",
            "members": [
              {
                "type": "SEQ",
                "members": [
                  {
                    "type": "STRING",
                    "value": "->"
                  },
                  {
                    "type": "SYMBOL",
                    "name": "_type_annotation"
                  }
                ]
              },
              {
                "type": "BLANK"
              }
            ]
          }
        },
        {
          "type": "STRING",
          "value": "="
        },
        {
          "type": "FIELD",
          "name": "value",
          "content": {
            "type": "SEQ",
            "members": [
              {
                "type": "SYMBOL",
                "name": "string_literal"
              },
              {
                "type": "SYMBOL",
                "name": "string_literal"
              }
            ]
          }
        }
      ]
    },
    "constant_statement": {
      "type": "SEQ",
      "members": [
        {
          "type": "CHOICE",
          "members": [
            {
              "type": "SYMBOL",
              "name": "visibility_modifier"
            },
            {
              "type": "BLANK"
            }
          ]
        },
        {
          "type": "STRING",
          "value": "const"
        },
        {
          "type": "FIELD",
          "name": "name",
          "content": {
            "type": "SYMBOL",
            "name": "_identifier"
          }
        },
        {
          "type": "FIELD",
          "name": "type",
          "content": {
            "type": "CHOICE",
            "members": [
              {
                "type": "SEQ",
                "members": [
                  {
                    "type": "STRING",
                    "value": ":"
                  },
                  {
                    "type": "SYMBOL",
                    "name": "_type_annotation"
                  }
                ]
              },
              {
                "type": "BLANK"
              }
            ]
          }
        },
        {
          "type": "STRING",
          "value": "="
        },
        {
          "type": "FIELD",
          "name": "value",
          "content": {
            "type": "SYMBOL",
            "name": "_value"
          }
        }
      ]
    },
    "_value": {
      "type": "CHOICE",
      "members": [
        {
          "type": "SYMBOL",
          "name": "_identifier"
        },
        {
          "type": "SYMBOL",
          "name": "qualified_identifier"
        },
        {
          "type": "SYMBOL",
          "name": "_type_identifier"
        },
        {
          "type": "SYMBOL",
          "name": "qualified_type_identifier"
        },
        {
          "type": "SYMBOL",
          "name": "function_call"
        },
        {
          "type": "SYMBOL",
          "name": "integer_literal"
        },
        {
          "type": "SYMBOL",
          "name": "float_literal"
        },
        {
          "type": "SYMBOL",
          "name": "string_literal"
        },
        {
          "type": "SYMBOL",
          "name": "tuple_literal"
        },
        {
          "type": "SYMBOL",
          "name": "_list_literals"
        },
        {
          "type": "SYMBOL",
          "name": "bitstring_literal"
        },
        {
          "type": "SEQ",
          "members": [
            {
              "type": "STRING",
              "value": "{"
            },
            {
              "type": "REPEAT",
              "content": {
                "type": "SYMBOL",
                "name": "_expression"
              }
            },
            {
              "type": "STRING",
              "value": "}"
            }
          ]
        },
        {
          "type": "SYMBOL",
          "name": "case_expression"
        }
      ]
    },
    "qualified_type_identifier": {
      "type": "SEQ",
      "members": [
        {
          "type": "SYMBOL",
          "name": "_module_identifier"
        },
        {
          "type": "STRING",
          "value": "."
        },
        {
          "type": "SYMBOL",
          "name": "_type_identifier"
        }
      ]
    },
    "qualified_identifier": {
      "type": "SEQ",
      "members": [
        {
          "type": "SYMBOL",
          "name": "_module_identifier"
        },
        {
          "type": "STRING",
          "value": "."
        },
        {
          "type": "SYMBOL",
          "name": "_identifier"
        }
      ]
    },
    "function_call": {
      "type": "SEQ",
      "members": [
        {
          "type": "CHOICE",
          "members": [
            {
              "type": "SYMBOL",
              "name": "_identifier"
            },
            {
              "type": "SYMBOL",
              "name": "qualified_identifier"
            },
            {
              "type": "SYMBOL",
              "name": "_type_identifier"
            },
            {
              "type": "SYMBOL",
              "name": "qualified_type_identifier"
            }
          ]
        },
        {
          "type": "FIELD",
          "name": "arguments",
          "content": {
            "type": "SYMBOL",
            "name": "_function_arguments"
          }
        }
      ]
    },
    "import_statement": {
      "type": "SEQ",
      "members": [
        {
          "type": "STRING",
          "value": "import"
        },
        {
          "type": "FIELD",
          "name": "module",
          "content": {
            "type": "SYMBOL",
            "name": "module_path"
          }
        },
        {
          "type": "FIELD",
          "name": "imports",
          "content": {
            "type": "CHOICE",
            "members": [
              {
                "type": "SEQ",
                "members": [
                  {
                    "type": "STRING",
                    "value": "."
                  },
                  {
                    "type": "STRING",
                    "value": "{"
                  },
                  {
                    "type": "CHOICE",
                    "members": [
                      {
                        "type": "SEQ",
                        "members": [
                          {
                            "type": "SYMBOL",
                            "name": "imported_field"
                          },
                          {
                            "type": "REPEAT",
                            "content": {
                              "type": "SEQ",
                              "members": [
                                {
                                  "type": "STRING",
                                  "value": ","
                                },
                                {
                                  "type": "SYMBOL",
                                  "name": "imported_field"
                                }
                              ]
                            }
                          },
                          {
                            "type": "CHOICE",
                            "members": [
                              {
                                "type": "STRING",
                                "value": ","
                              },
                              {
                                "type": "BLANK"
                              }
                            ]
                          }
                        ]
                      },
                      {
                        "type": "BLANK"
                      }
                    ]
                  },
                  {
                    "type": "STRING",
                    "value": "}"
                  }
                ]
              },
              {
                "type": "BLANK"
              }
            ]
          }
        },
        {
          "type": "CHOICE",
          "members": [
            {
              "type": "SEQ",
              "members": [
                {
                  "type": "STRING",
                  "value": "as"
                },
                {
                  "type": "FIELD",
                  "name": "as_name",
                  "content": {
                    "type": "SYMBOL",
                    "name": "_module_identifier"
                  }
                }
              ]
            },
            {
              "type": "BLANK"
            }
          ]
        }
      ]
    },
    "imported_field": {
      "type": "SEQ",
      "members": [
        {
          "type": "FIELD",
          "name": "name",
          "content": {
            "type": "CHOICE",
            "members": [
              {
                "type": "SYMBOL",
                "name": "_type_identifier"
              },
              {
                "type": "SYMBOL",
                "name": "_identifier"
              }
            ]
          }
        },
        {
          "type": "CHOICE",
          "members": [
            {
              "type": "SEQ",
              "members": [
                {
                  "type": "STRING",
                  "value": "as"
                },
                {
                  "type": "FIELD",
                  "name": "as_name",
                  "content": {
                    "type": "SYMBOL",
                    "name": "_identifier"
                  }
                }
              ]
            },
            {
              "type": "BLANK"
            }
          ]
        }
      ]
    },
    "module_path": {
      "type": "SEQ",
      "members": [
        {
          "type": "SYMBOL",
          "name": "_module_identifier"
        },
        {
          "type": "REPEAT",
          "content": {
            "type": "SEQ",
            "members": [
              {
                "type": "STRING",
                "value": "/"
              },
              {
                "type": "SYMBOL",
                "name": "_module_identifier"
              }
            ]
          }
        }
      ]
    },
    "_type_identifier": {
      "type": "ALIAS",
      "content": {
        "type": "SYMBOL",
        "name": "up_name"
      },
      "named": true,
      "value": "type_identifier"
    },
    "_identifier": {
      "type": "ALIAS",
      "content": {
        "type": "SYMBOL",
        "name": "down_name"
      },
      "named": true,
      "value": "identifier"
    },
    "_discard_identifier": {
      "type": "ALIAS",
      "content": {
        "type": "SYMBOL",
        "name": "discard_name"
      },
      "named": true,
      "value": "discard_identifier"
    },
    "_module_identifier": {
      "type": "ALIAS",
      "content": {
        "type": "SYMBOL",
        "name": "down_name"
      },
      "named": true,
      "value": "module_identifier"
    },
    "_type_hole": {
      "type": "ALIAS",
      "content": {
        "type": "SYMBOL",
        "name": "discard_name"
      },
      "named": true,
      "value": "type_hole"
    },
    "type_alias_statement": {
      "type": "SEQ",
      "members": [
        {
          "type": "CHOICE",
          "members": [
            {
              "type": "SYMBOL",
              "name": "visibility_modifier"
            },
            {
              "type": "BLANK"
            }
          ]
        },
        {
          "type": "STRING",
          "value": "type"
        },
        {
          "type": "FIELD",
          "name": "name",
          "content": {
            "type": "SYMBOL",
            "name": "_type_identifier"
          }
        },
        {
          "type": "FIELD",
          "name": "type_parameters",
          "content": {
            "type": "CHOICE",
            "members": [
              {
                "type": "SYMBOL",
                "name": "type_parameters"
              },
              {
                "type": "BLANK"
              }
            ]
          }
        },
        {
          "type": "SEQ",
          "members": [
            {
              "type": "STRING",
              "value": "="
            },
            {
              "type": "FIELD",
              "name": "type",
              "content": {
                "type": "SYMBOL",
                "name": "_type_annotation"
              }
            }
          ]
        }
      ]
    },
    "custom_type_statement": {
      "type": "SEQ",
      "members": [
        {
          "type": "CHOICE",
          "members": [
            {
              "type": "SYMBOL",
              "name": "visibility_modifier"
            },
            {
              "type": "BLANK"
            }
          ]
        },
        {
          "type": "CHOICE",
          "members": [
            {
              "type": "SYMBOL",
              "name": "opacity_modifier"
            },
            {
              "type": "BLANK"
            }
          ]
        },
        {
          "type": "STRING",
          "value": "type"
        },
        {
          "type": "FIELD",
          "name": "name",
          "content": {
            "type": "SYMBOL",
            "name": "_type_identifier"
          }
        },
        {
          "type": "FIELD",
          "name": "type_parameters",
          "content": {
            "type": "CHOICE",
            "members": [
              {
                "type": "SYMBOL",
                "name": "type_parameters"
              },
              {
                "type": "BLANK"
              }
            ]
          }
        },
        {
          "type": "FIELD",
          "name": "constructors",
          "content": {
            "type": "SEQ",
            "members": [
              {
                "type": "STRING",
                "value": "{"
              },
              {
                "type": "REPEAT",
                "content": {
                  "type": "SYMBOL",
                  "name": "type_constructor_statement"
                }
              },
              {
                "type": "STRING",
                "value": "}"
              }
            ]
          }
        }
      ]
    },
    "type_constructor_statement": {
      "type": "SEQ",
      "members": [
        {
          "type": "FIELD",
          "name": "name",
          "content": {
            "type": "SYMBOL",
            "name": "_type_identifier"
          }
        },
        {
          "type": "FIELD",
          "name": "parameters",
          "content": {
            "type": "CHOICE",
            "members": [
              {
                "type": "SEQ",
                "members": [
                  {
                    "type": "STRING",
                    "value": "("
                  },
                  {
                    "type": "SEQ",
                    "members": [
                      {
                        "type": "CHOICE",
                        "members": [
                          {
                            "type": "SYMBOL",
                            "name": "named_parameter"
                          },
                          {
                            "type": "SYMBOL",
                            "name": "anonymous_parameter"
                          }
                        ]
                      },
                      {
                        "type": "REPEAT",
                        "content": {
                          "type": "SEQ",
                          "members": [
                            {
                              "type": "STRING",
                              "value": ","
                            },
                            {
                              "type": "CHOICE",
                              "members": [
                                {
                                  "type": "SYMBOL",
                                  "name": "named_parameter"
                                },
                                {
                                  "type": "SYMBOL",
                                  "name": "anonymous_parameter"
                                }
                              ]
                            }
                          ]
                        }
                      },
                      {
                        "type": "CHOICE",
                        "members": [
                          {
                            "type": "STRING",
                            "value": ","
                          },
                          {
                            "type": "BLANK"
                          }
                        ]
                      }
                    ]
                  },
                  {
                    "type": "STRING",
                    "value": ")"
                  }
                ]
              },
              {
                "type": "BLANK"
              }
            ]
          }
        }
      ]
    },
    "external_type_statement": {
      "type": "SEQ",
      "members": [
        {
          "type": "CHOICE",
          "members": [
            {
              "type": "SYMBOL",
              "name": "visibility_modifier"
            },
            {
              "type": "BLANK"
            }
          ]
        },
        {
          "type": "SYMBOL",
          "name": "external_modifier"
        },
        {
          "type": "STRING",
          "value": "type"
        },
        {
          "type": "FIELD",
          "name": "name",
          "content": {
            "type": "SYMBOL",
            "name": "_type_identifier"
          }
        },
        {
          "type": "FIELD",
          "name": "type_parameters",
          "content": {
            "type": "CHOICE",
            "members": [
              {
                "type": "SYMBOL",
                "name": "type_parameters"
              },
              {
                "type": "BLANK"
              }
            ]
          }
        }
      ]
    },
    "type_parameters": {
      "type": "PREC",
      "value": 1,
      "content": {
        "type": "SEQ",
        "members": [
          {
            "type": "STRING",
            "value": "("
          },
          {
            "type": "SEQ",
            "members": [
              {
                "type": "SYMBOL",
                "name": "_type_variable"
              },
              {
                "type": "REPEAT",
                "content": {
                  "type": "SEQ",
                  "members": [
                    {
                      "type": "STRING",
                      "value": ","
                    },
                    {
                      "type": "SYMBOL",
                      "name": "_type_variable"
                    }
                  ]
                }
              },
              {
                "type": "CHOICE",
                "members": [
                  {
                    "type": "STRING",
                    "value": ","
                  },
                  {
                    "type": "BLANK"
                  }
                ]
              }
            ]
          },
          {
            "type": "STRING",
            "value": ")"
          }
        ]
      }
    },
    "_type_variable": {
      "type": "ALIAS",
      "content": {
        "type": "SYMBOL",
        "name": "down_name"
      },
      "named": true,
      "value": "type_variable"
    },
    "_type_annotation": {
      "type": "CHOICE",
      "members": [
        {
          "type": "SYMBOL",
          "name": "_type_identifier"
        },
        {
          "type": "SYMBOL",
          "name": "generic_type"
        },
        {
          "type": "SYMBOL",
          "name": "_type_variable"
        },
        {
          "type": "SEQ",
          "members": [
            {
              "type": "SYMBOL",
              "name": "_module_identifier"
            },
            {
              "type": "STRING",
              "value": "."
            },
            {
              "type": "SYMBOL",
              "name": "_type_identifier"
            }
          ]
        },
        {
          "type": "SEQ",
          "members": [
            {
              "type": "SYMBOL",
              "name": "_module_identifier"
            },
            {
              "type": "STRING",
              "value": "."
            },
            {
              "type": "SYMBOL",
              "name": "generic_type"
            }
          ]
        },
        {
          "type": "SEQ",
          "members": [
            {
              "type": "STRING",
              "value": "tuple"
            },
            {
              "type": "STRING",
              "value": "("
            },
            {
              "type": "SEQ",
              "members": [
                {
                  "type": "SYMBOL",
                  "name": "_type_annotation"
                },
                {
                  "type": "REPEAT",
                  "content": {
                    "type": "SEQ",
                    "members": [
                      {
                        "type": "STRING",
                        "value": ","
                      },
                      {
                        "type": "SYMBOL",
                        "name": "_type_annotation"
                      }
                    ]
                  }
                },
                {
                  "type": "CHOICE",
                  "members": [
                    {
                      "type": "STRING",
                      "value": ","
                    },
                    {
                      "type": "BLANK"
                    }
                  ]
                }
              ]
            },
            {
              "type": "STRING",
              "value": ")"
            }
          ]
        },
        {
          "type": "SEQ",
          "members": [
            {
              "type": "STRING",
              "value": "fn"
            },
            {
              "type": "STRING",
              "value": "("
            },
            {
              "type": "SEQ",
              "members": [
                {
                  "type": "SYMBOL",
                  "name": "_type_annotation"
                },
                {
                  "type": "REPEAT",
                  "content": {
                    "type": "SEQ",
                    "members": [
                      {
                        "type": "STRING",
                        "value": ","
                      },
                      {
                        "type": "SYMBOL",
                        "name": "_type_annotation"
                      }
                    ]
                  }
                },
                {
                  "type": "CHOICE",
                  "members": [
                    {
                      "type": "STRING",
                      "value": ","
                    },
                    {
                      "type": "BLANK"
                    }
                  ]
                }
              ]
            },
            {
              "type": "STRING",
              "value": ")"
            },
            {
              "type": "STRING",
              "value": "->"
            },
            {
              "type": "SYMBOL",
              "name": "_type_annotation"
            }
          ]
        },
        {
          "type": "SYMBOL",
          "name": "_type_hole"
        }
      ]
    },
    "generic_type": {
      "type": "SEQ",
      "members": [
        {
          "type": "SYMBOL",
          "name": "_type_identifier"
        },
        {
          "type": "STRING",
          "value": "("
        },
        {
          "type": "SEQ",
          "members": [
            {
              "type": "SYMBOL",
              "name": "_type_annotation"
            },
            {
              "type": "REPEAT",
              "content": {
                "type": "SEQ",
                "members": [
                  {
                    "type": "STRING",
                    "value": ","
                  },
                  {
                    "type": "SYMBOL",
                    "name": "_type_annotation"
                  }
                ]
              }
            },
            {
              "type": "CHOICE",
              "members": [
                {
                  "type": "STRING",
                  "value": ","
                },
                {
                  "type": "BLANK"
                }
              ]
            }
          ]
        },
        {
          "type": "CHOICE",
          "members": [
            {
              "type": "STRING",
              "value": ","
            },
            {
              "type": "BLANK"
            }
          ]
        },
        {
          "type": "STRING",
          "value": ")"
        }
      ]
    },
    "_pattern": {
      "type": "CHOICE",
      "members": [
        {
          "type": "SYMBOL",
          "name": "_identifier"
        },
        {
          "type": "SYMBOL",
          "name": "_discard_identifier"
        },
        {
          "type": "SYMBOL",
          "name": "integer_literal"
        },
        {
          "type": "SYMBOL",
          "name": "float_literal"
        },
        {
          "type": "SYMBOL",
          "name": "string_literal"
        },
        {
          "type": "SYMBOL",
          "name": "tuple_literal"
        },
        {
          "type": "SYMBOL",
          "name": "list_literal"
        },
        {
          "type": "SYMBOL",
          "name": "bitstring_literal"
        },
        {
          "type": "SEQ",
          "members": [
            {
              "type": "CHOICE",
              "members": [
                {
                  "type": "SEQ",
                  "members": [
                    {
                      "type": "SYMBOL",
                      "name": "_module_identifier"
                    },
                    {
                      "type": "STRING",
                      "value": "."
                    }
                  ]
                },
                {
                  "type": "BLANK"
                }
              ]
            },
            {
              "type": "SYMBOL",
              "name": "_type_identifier"
            },
            {
              "type": "CHOICE",
              "members": [
                {
                  "type": "SYMBOL",
                  "name": "_function_arguments"
                },
                {
                  "type": "BLANK"
                }
              ]
            }
          ]
        }
      ]
    },
    "case_expression": {
      "type": "SEQ",
      "members": [
        {
          "type": "STRING",
          "value": "case"
        },
        {
          "type": "FIELD",
          "name": "inputs",
          "content": {
            "type": "SEQ",
            "members": [
              {
                "type": "SYMBOL",
                "name": "_value"
              },
              {
                "type": "REPEAT",
                "content": {
                  "type": "SEQ",
                  "members": [
                    {
                      "type": "STRING",
                      "value": ","
                    },
                    {
                      "type": "SYMBOL",
                      "name": "_value"
                    }
                  ]
                }
              }
            ]
          }
        },
        {
          "type": "STRING",
          "value": "{"
        },
        {
          "type": "FIELD",
          "name": "branches",
          "content": {
            "type": "REPEAT",
            "content": {
              "type": "SYMBOL",
              "name": "case_branch"
            }
          }
        },
        {
          "type": "STRING",
          "value": "}"
        }
      ]
    },
    "case_branch": {
      "type": "SEQ",
      "members": [
        {
          "type": "SEQ",
          "members": [
            {
              "type": "SEQ",
              "members": [
                {
                  "type": "SYMBOL",
                  "name": "_pattern"
                },
                {
                  "type": "REPEAT",
                  "content": {
                    "type": "SEQ",
                    "members": [
                      {
                        "type": "STRING",
                        "value": ","
                      },
                      {
                        "type": "SYMBOL",
                        "name": "_pattern"
                      }
                    ]
                  }
                }
              ]
            },
            {
              "type": "REPEAT",
              "content": {
                "type": "SEQ",
                "members": [
                  {
                    "type": "STRING",
                    "value": "|"
                  },
                  {
                    "type": "SEQ",
                    "members": [
                      {
                        "type": "SYMBOL",
                        "name": "_pattern"
                      },
                      {
                        "type": "REPEAT",
                        "content": {
                          "type": "SEQ",
                          "members": [
                            {
                              "type": "STRING",
                              "value": ","
                            },
                            {
                              "type": "SYMBOL",
                              "name": "_pattern"
                            }
                          ]
                        }
                      }
                    ]
                  }
                ]
              }
            }
          ]
        },
        {
          "type": "CHOICE",
          "members": [
            {
              "type": "SYMBOL",
              "name": "case_guard"
            },
            {
              "type": "BLANK"
            }
          ]
        },
        {
          "type": "STRING",
          "value": "->"
        },
        {
          "type": "SYMBOL",
          "name": "_value"
        }
      ]
    },
    "case_guard": {
      "type": "SEQ",
      "members": [
        {
          "type": "STRING",
          "value": "if"
        },
        {
          "type": "SYMBOL",
          "name": "binary_expression"
        }
      ]
    },
    "string_literal": {
      "type": "SEQ",
      "members": [
        {
          "type": "STRING",
          "value": "\""
        },
        {
          "type": "REPEAT",
          "content": {
            "type": "TOKEN",
            "content": {
              "type": "PREC",
              "value": 1,
              "content": {
                "type": "PATTERN",
                "value": "\\\\.|[^\"]"
              }
            }
          }
        },
        {
          "type": "STRING",
          "value": "\""
        }
      ]
    },
    "bitstring_literal": {
      "type": "SEQ",
      "members": [
        {
          "type": "STRING",
          "value": "<<"
        },
        {
          "type": "FIELD",
          "name": "segments",
          "content": {
            "type": "CHOICE",
            "members": [
              {
                "type": "SEQ",
                "members": [
                  {
                    "type": "SYMBOL",
                    "name": "bitstring_segment"
                  },
                  {
                    "type": "REPEAT",
                    "content": {
                      "type": "SEQ",
                      "members": [
                        {
                          "type": "STRING",
                          "value": ","
                        },
                        {
                          "type": "SYMBOL",
                          "name": "bitstring_segment"
                        }
                      ]
                    }
                  },
                  {
                    "type": "CHOICE",
                    "members": [
                      {
                        "type": "STRING",
                        "value": ","
                      },
                      {
                        "type": "BLANK"
                      }
                    ]
                  }
                ]
              },
              {
                "type": "BLANK"
              }
            ]
          }
        },
        {
          "type": "STRING",
          "value": ">>"
        }
      ]
    },
    "bitstring_segment": {
      "type": "SEQ",
      "members": [
        {
          "type": "FIELD",
          "name": "pattern",
          "content": {
            "type": "SYMBOL",
            "name": "_pattern"
          }
        },
        {
          "type": "FIELD",
          "name": "options",
          "content": {
            "type": "CHOICE",
            "members": [
              {
                "type": "SEQ",
                "members": [
                  {
                    "type": "STRING",
                    "value": ":"
                  },
                  {
                    "type": "CHOICE",
                    "members": [
                      {
                        "type": "SYMBOL",
                        "name": "integer_literal"
                      },
                      {
                        "type": "SEQ",
                        "members": [
                          {
                            "type": "SEQ",
                            "members": [
                              {
                                "type": "SYMBOL",
                                "name": "_identifier"
                              },
                              {
                                "type": "CHOICE",
                                "members": [
                                  {
                                    "type": "SEQ",
                                    "members": [
                                      {
                                        "type": "STRING",
                                        "value": "("
                                      },
                                      {
                                        "type": "SYMBOL",
                                        "name": "integer_literal"
                                      },
                                      {
                                        "type": "STRING",
                                        "value": ")"
                                      }
                                    ]
                                  },
                                  {
                                    "type": "BLANK"
                                  }
                                ]
                              }
                            ]
                          },
                          {
                            "type": "REPEAT",
                            "content": {
                              "type": "SEQ",
                              "members": [
                                {
                                  "type": "STRING",
                                  "value": "-"
                                },
                                {
                                  "type": "SEQ",
                                  "members": [
                                    {
                                      "type": "SYMBOL",
                                      "name": "_identifier"
                                    },
                                    {
                                      "type": "CHOICE",
                                      "members": [
                                        {
                                          "type": "SEQ",
                                          "members": [
                                            {
                                              "type": "STRING",
                                              "value": "("
                                            },
                                            {
                                              "type": "SYMBOL",
                                              "name": "integer_literal"
                                            },
                                            {
                                              "type": "STRING",
                                              "value": ")"
                                            }
                                          ]
                                        },
                                        {
                                          "type": "BLANK"
                                        }
                                      ]
                                    }
                                  ]
                                }
                              ]
                            }
                          }
                        ]
                      }
                    ]
                  }
                ]
              },
              {
                "type": "BLANK"
              }
            ]
          }
        }
      ]
    },
    "integer_literal": {
      "type": "CHOICE",
      "members": [
        {
          "type": "PATTERN",
          "value": "-?[0-9][0-9_]*"
        },
        {
          "type": "PATTERN",
          "value": "0[oO][0-7][_0-7]*"
        },
        {
          "type": "PATTERN",
          "value": "0[bB][01][01_]*"
        },
        {
          "type": "PATTERN",
          "value": "0[xX][0-9A-Fa-f][0-9A-Fa-f_]*"
        }
      ]
    },
    "float_literal": {
      "type": "PATTERN",
      "value": "-?(0\\.|[1-9][0-9_]*\\.)[0-9][0-9_]*"
    },
    "tuple_literal": {
      "type": "SEQ",
      "members": [
        {
          "type": "STRING",
          "value": "tuple"
        },
        {
          "type": "STRING",
          "value": "("
        },
        {
          "type": "CHOICE",
          "members": [
            {
              "type": "SEQ",
              "members": [
                {
                  "type": "SYMBOL",
                  "name": "_value"
                },
                {
                  "type": "REPEAT",
                  "content": {
                    "type": "SEQ",
                    "members": [
                      {
                        "type": "STRING",
                        "value": ","
                      },
                      {
                        "type": "SYMBOL",
                        "name": "_value"
                      }
                    ]
                  }
                },
                {
                  "type": "CHOICE",
                  "members": [
                    {
                      "type": "STRING",
                      "value": ","
                    },
                    {
                      "type": "BLANK"
                    }
                  ]
                }
              ]
            },
            {
              "type": "BLANK"
            }
          ]
        },
        {
          "type": "STRING",
          "value": ")"
        }
      ]
    },
    "_list_literals": {
      "type": "CHOICE",
      "members": [
        {
          "type": "SYMBOL",
          "name": "empty_list_literal"
        },
        {
          "type": "SYMBOL",
          "name": "list_literal"
        }
      ]
    },
    "empty_list_literal": {
      "type": "PREC",
      "value": 1,
      "content": {
        "type": "SEQ",
        "members": [
          {
            "type": "STRING",
            "value": "["
          },
          {
            "type": "STRING",
            "value": "]"
          }
        ]
      }
    },
    "list_literal": {
      "type": "SEQ",
      "members": [
        {
          "type": "STRING",
          "value": "["
        },
        {
          "type": "CHOICE",
          "members": [
            {
              "type": "SEQ",
              "members": [
                {
                  "type": "SYMBOL",
                  "name": "_value"
                },
                {
                  "type": "REPEAT",
                  "content": {
                    "type": "SEQ",
                    "members": [
                      {
                        "type": "STRING",
                        "value": ","
                      },
                      {
                        "type": "SYMBOL",
                        "name": "_value"
                      }
                    ]
                  }
                },
                {
                  "type": "CHOICE",
                  "members": [
                    {
                      "type": "STRING",
                      "value": ","
                    },
                    {
                      "type": "BLANK"
                    }
                  ]
                }
              ]
            },
            {
              "type": "BLANK"
            }
          ]
        },
        {
          "type": "CHOICE",
          "members": [
            {
              "type": "SEQ",
              "members": [
                {
                  "type": "SYMBOL",
                  "name": "spread"
                },
                {
                  "type": "CHOICE",
                  "members": [
                    {
                      "type": "STRING",
                      "value": ","
                    },
                    {
                      "type": "BLANK"
                    }
                  ]
                }
              ]
            },
            {
              "type": "BLANK"
            }
          ]
        },
        {
          "type": "STRING",
          "value": "]"
        }
      ]
    },
    "spread": {
      "type": "SEQ",
      "members": [
        {
          "type": "STRING",
          "value": ".."
        },
        {
          "type": "SYMBOL",
          "name": "_value"
        }
      ]
    },
    "_function_arguments": {
      "type": "SEQ",
      "members": [
        {
          "type": "STRING",
          "value": "("
        },
        {
          "type": "CHOICE",
          "members": [
            {
              "type": "SEQ",
              "members": [
                {
                  "type": "CHOICE",
                  "members": [
                    {
                      "type": "SYMBOL",
                      "name": "named_argument"
                    },
                    {
                      "type": "SYMBOL",
                      "name": "anonymous_argument"
                    },
                    {
                      "type": "SYMBOL",
                      "name": "argument_hole"
                    }
                  ]
                },
                {
                  "type": "REPEAT",
                  "content": {
                    "type": "SEQ",
                    "members": [
                      {
                        "type": "STRING",
                        "value": ","
                      },
                      {
                        "type": "CHOICE",
                        "members": [
                          {
                            "type": "SYMBOL",
                            "name": "named_argument"
                          },
                          {
                            "type": "SYMBOL",
                            "name": "anonymous_argument"
                          },
                          {
                            "type": "SYMBOL",
                            "name": "argument_hole"
                          }
                        ]
                      }
                    ]
                  }
                },
                {
                  "type": "CHOICE",
                  "members": [
                    {
                      "type": "STRING",
                      "value": ","
                    },
                    {
                      "type": "BLANK"
                    }
                  ]
                }
              ]
            },
            {
              "type": "BLANK"
            }
          ]
        },
        {
          "type": "STRING",
          "value": ")"
        }
      ]
    },
    "named_argument": {
      "type": "SEQ",
      "members": [
        {
          "type": "FIELD",
          "name": "name",
          "content": {
            "type": "SYMBOL",
            "name": "_identifier"
          }
        },
        {
          "type": "STRING",
          "value": ":"
        },
        {
          "type": "FIELD",
          "name": "value",
          "content": {
            "type": "SYMBOL",
            "name": "_value"
          }
        }
      ]
    },
    "anonymous_argument": {
      "type": "FIELD",
      "name": "value",
      "content": {
        "type": "SYMBOL",
        "name": "_value"
      }
    },
    "argument_hole": {
      "type": "FIELD",
      "name": "value",
      "content": {
        "type": "SYMBOL",
        "name": "_discard_identifier"
      }
    },
    "_function_parameters": {
      "type": "SEQ",
      "members": [
        {
          "type": "STRING",
          "value": "("
        },
        {
          "type": "CHOICE",
          "members": [
            {
              "type": "SEQ",
              "members": [
                {
                  "type": "SYMBOL",
                  "name": "_function_parameter"
                },
                {
                  "type": "REPEAT",
                  "content": {
                    "type": "SEQ",
                    "members": [
                      {
                        "type": "STRING",
                        "value": ","
                      },
                      {
                        "type": "SYMBOL",
                        "name": "_function_parameter"
                      }
                    ]
                  }
                },
                {
                  "type": "CHOICE",
                  "members": [
                    {
                      "type": "STRING",
                      "value": ","
                    },
                    {
                      "type": "BLANK"
                    }
                  ]
                }
              ]
            },
            {
              "type": "BLANK"
            }
          ]
        },
        {
          "type": "CHOICE",
          "members": [
            {
              "type": "STRING",
              "value": ","
            },
            {
              "type": "BLANK"
            }
          ]
        },
        {
          "type": "STRING",
          "value": ")"
        }
      ]
    },
    "_function_parameter": {
      "type": "CHOICE",
      "members": [
        {
          "type": "SYMBOL",
          "name": "named_parameter"
        },
        {
          "type": "SYMBOL",
          "name": "anonymous_parameter"
        },
        {
          "type": "SYMBOL",
          "name": "labeled_parameter"
        }
      ]
    },
    "named_parameter": {
      "type": "SEQ",
      "members": [
        {
          "type": "FIELD",
          "name": "name",
          "content": {
            "type": "CHOICE",
            "members": [
              {
                "type": "SYMBOL",
                "name": "_identifier"
              },
              {
                "type": "SYMBOL",
                "name": "_discard_identifier"
              }
            ]
          }
        },
        {
          "type": "STRING",
          "value": ":"
        },
        {
          "type": "FIELD",
          "name": "type",
          "content": {
            "type": "SYMBOL",
            "name": "_type_annotation"
          }
        }
      ]
    },
    "anonymous_parameter": {
      "type": "FIELD",
      "name": "type",
      "content": {
        "type": "SYMBOL",
        "name": "_type_annotation"
      }
    },
    "labeled_parameter": {
      "type": "SEQ",
      "members": [
        {
          "type": "FIELD",
          "name": "label",
          "content": {
            "type": "SYMBOL",
            "name": "_identifier"
          }
        },
        {
          "type": "FIELD",
          "name": "name",
          "content": {
            "type": "CHOICE",
            "members": [
              {
                "type": "SYMBOL",
                "name": "_identifier"
              },
              {
                "type": "SYMBOL",
                "name": "_discard_identifier"
              }
            ]
          }
        },
        {
          "type": "FIELD",
          "name": "type",
          "content": {
            "type": "CHOICE",
            "members": [
              {
                "type": "SEQ",
                "members": [
                  {
                    "type": "STRING",
                    "value": ":"
                  },
                  {
                    "type": "SYMBOL",
                    "name": "_type_annotation"
                  }
                ]
              },
              {
                "type": "BLANK"
              }
            ]
          }
        }
      ]
    },
    "visibility_modifier": {
      "type": "PREC_RIGHT",
      "value": 0,
      "content": {
        "type": "STRING",
        "value": "pub"
      }
    },
    "opacity_modifier": {
      "type": "PREC_RIGHT",
      "value": 0,
      "content": {
        "type": "STRING",
        "value": "opaque"
      }
    },
    "external_modifier": {
      "type": "PREC_RIGHT",
      "value": 0,
      "content": {
        "type": "STRING",
        "value": "external"
      }
    },
    "comment": {
      "type": "TOKEN",
      "content": {
        "type": "SEQ",
        "members": [
          {
            "type": "STRING",
            "value": "//"
          },
          {
            "type": "PATTERN",
            "value": ".*"
          }
        ]
      }
    },
    "up_name": {
      "type": "PATTERN",
      "value": "[A-Z][a-zA-Z\\d_]*"
    },
    "down_name": {
      "type": "PATTERN",
      "value": "[a-z][a-z\\d_]*"
    },
    "discard_name": {
      "type": "PATTERN",
      "value": "[_][a-z\\d_]*"
    }
  },
  "extras": [
    {
      "type": "PATTERN",
      "value": "\\s"
    },
    {
      "type": "SYMBOL",
      "name": "comment"
    }
  ],
  "conflicts": [],
  "externals": [],
  "inline": [],
  "supertypes": []
}

